<define-tag pagetitle>DLA-3073-1 webkit2gtk</define-tag>
<define-tag report_date>2022-08-17</define-tag>
<define-tag secrefs>CVE-2022-32792 CVE-2022-32816</define-tag>
<define-tag packages>webkit2gtk</define-tag>
<define-tag isvulnerable>yes</define-tag>
<define-tag fixed>yes</define-tag>
<define-tag fixed-section>no</define-tag>

#use wml::debian::security

