<define-tag pagetitle>DSA-4681-1 webkit2gtk</define-tag>
<define-tag report_date>2020-5-07</define-tag>
<define-tag secrefs>CVE-2020-3885 CVE-2020-3894 CVE-2020-3895 CVE-2020-3897 CVE-2020-3899 CVE-2020-3900 CVE-2020-3901 CVE-2020-3902</define-tag>
<define-tag packages>webkit2gtk</define-tag>
<define-tag isvulnerable>yes</define-tag>
<define-tag fixed>yes</define-tag>
<define-tag fixed-section>no</define-tag>

#use wml::debian::security



</dl>
