<define-tag pagetitle>DLA-2551-1 slirp</define-tag>
<define-tag report_date>2021-2-9</define-tag>
<define-tag secrefs>CVE-2020-7039 CVE-2020-8608</define-tag>
<define-tag packages>slirp</define-tag>
<define-tag isvulnerable>yes</define-tag>
<define-tag fixed>yes</define-tag>
<define-tag fixed-section>no</define-tag>

#use wml::debian::security

