<define-tag pagetitle>DLA-986-1 zookeeper</define-tag>
<define-tag report_date>2017-6-15</define-tag>
<define-tag secrefs>CVE-2017-5637 Bug#863811</define-tag>
<define-tag packages>zookeeper</define-tag>
<define-tag isvulnerable>yes</define-tag>
<define-tag fixed>yes</define-tag>
<define-tag fixed-section>no</define-tag>

#use wml::debian::security

