<define-tag pagetitle>DLA-1132-1 xen</define-tag>
<define-tag report_date>2017-10-11</define-tag>
<define-tag secrefs>CVE-2017-10912 CVE-2017-10913 CVE-2017-10914 CVE-2017-10915 CVE-2017-10918 CVE-2017-10920 CVE-2017-10921 CVE-2017-10922 CVE-2017-12135 CVE-2017-12137 CVE-2017-12855 CVE-2017-14316 CVE-2017-14317 CVE-2017-14318 CVE-2017-14319</define-tag>
<define-tag packages>xen</define-tag>
<define-tag isvulnerable>yes</define-tag>
<define-tag fixed>yes</define-tag>
<define-tag fixed-section>no</define-tag>

#use wml::debian::security

