<define-tag pagetitle>DLA-1131-1 imagemagick</define-tag>
<define-tag report_date>2017-10-11</define-tag>
<define-tag secrefs>CVE-2017-12691 CVE-2017-12692 CVE-2017-12693 CVE-2017-1287 CVE-2017-13758 CVE-2017-13768 CVE-2017-13769 CVE-2017-1406 CVE-2017-14172 CVE-2017-14173 CVE-2017-14174 CVE-2017-1417 CVE-2017-14224 CVE-2017-14249 CVE-2017-14341 CVE-2017-1440 CVE-2017-14505 CVE-2017-14607 CVE-2017-14682 CVE-2017-1473 CVE-2017-14741 CVE-2017-14989 CVE-2017-15016 CVE-2017-15017 Bug#873871 Bug#875338 Bug#875339 Bug#875341 Bug#875352 Bug#875502 Bug#875503 Bug#875504</define-tag>
<define-tag packages>imagemagick</define-tag>
<define-tag isvulnerable>yes</define-tag>
<define-tag fixed>yes</define-tag>
<define-tag fixed-section>no</define-tag>

#use wml::debian::security

