<define-tag pagetitle>DLA-2111-1 jackson-databind</define-tag>
<define-tag report_date>2020-02-20</define-tag>
<define-tag secrefs>CVE-2019-20330 CVE-2020-8840</define-tag>
<define-tag packages>jackson-databind</define-tag>
<define-tag isvulnerable>yes</define-tag>
<define-tag fixed>yes</define-tag>
<define-tag fixed-section>no</define-tag>

#use wml::debian::security

