<define-tag pagetitle>DLA-2483-1 linux-4.19</define-tag>
<define-tag report_date>2020-12-05</define-tag>
<define-tag secrefs>CVE-2019-19039 CVE-2019-19377 CVE-2019-19770 CVE-2019-19816 CVE-2020-0423 CVE-2020-8694 CVE-2020-14351 CVE-2020-25656 CVE-2020-25668 CVE-2020-25669 CVE-2020-25704 CVE-2020-25705 CVE-2020-27673 CVE-2020-27675 CVE-2020-28941 CVE-2020-28974 Bug#949863 Bug#968623 Bug#971058</define-tag>
<define-tag packages>linux-4.19</define-tag>
<define-tag isvulnerable>yes</define-tag>
<define-tag fixed>yes</define-tag>
<define-tag fixed-section>no</define-tag>

#use wml::debian::security

