<define-tag pagetitle>DLA-1462-1 wpa</define-tag>
<define-tag report_date>2018-8-9</define-tag>
<define-tag secrefs>CVE-2018-14526 Bug#905739</define-tag>
<define-tag packages>wpa</define-tag>
<define-tag isvulnerable>yes</define-tag>
<define-tag fixed>yes</define-tag>
<define-tag fixed-section>no</define-tag>

#use wml::debian::security

