<define-tag pagetitle>DLA-1543-1 gnulib</define-tag>
<define-tag report_date>2018-10-10</define-tag>
<define-tag secrefs>CVE-2018-17942 Bug#910757</define-tag>
<define-tag packages>gnulib</define-tag>
<define-tag isvulnerable>yes</define-tag>
<define-tag fixed>yes</define-tag>
<define-tag fixed-section>no</define-tag>

#use wml::debian::security

