<define-tag pagetitle>DLA-1232-1 linux</define-tag>
<define-tag report_date>2018-1-7</define-tag>
<define-tag secrefs>CVE-2017-5754 CVE-2017-17558 CVE-2017-17741 CVE-2017-17805 CVE-2017-17806 CVE-2017-17807</define-tag>
<define-tag packages>linux</define-tag>
<define-tag isvulnerable>yes</define-tag>
<define-tag fixed>yes</define-tag>
<define-tag fixed-section>no</define-tag>

#use wml::debian::security

