<define-tag pagetitle>DSA-4393-1 systemd</define-tag>
<define-tag report_date>2019-2-18</define-tag>
<define-tag secrefs>CVE-2019-6454</define-tag>
<define-tag packages>systemd</define-tag>
<define-tag isvulnerable>yes</define-tag>
<define-tag fixed>yes</define-tag>
<define-tag fixed-section>no</define-tag>

#use wml::debian::security



</dl>
