<define-tag pagetitle>DSA-4554-1 ruby-loofah</define-tag>
<define-tag report_date>2019-10-28</define-tag>
<define-tag secrefs>CVE-2019-15587 Bug#942894</define-tag>
<define-tag packages>ruby-loofah</define-tag>
<define-tag isvulnerable>yes</define-tag>
<define-tag fixed>yes</define-tag>
<define-tag fixed-section>no</define-tag>

#use wml::debian::security



</dl>
