<define-tag pagetitle>DSA-5127-1 linux</define-tag>
<define-tag report_date>2022-5-02</define-tag>
<define-tag secrefs>CVE-2021-4197 CVE-2022-0168 CVE-2022-1016 CVE-2022-1048 CVE-2022-1158 CVE-2022-1195 CVE-2022-1198 CVE-2022-1199 CVE-2022-1204 CVE-2022-1205 CVE-2022-1353 CVE-2022-1516 CVE-2022-26490 CVE-2022-27666 CVE-2022-28356 CVE-2022-28388 CVE-2022-28389 CVE-2022-28390 CVE-2022-29582</define-tag>
<define-tag packages>linux</define-tag>
<define-tag isvulnerable>yes</define-tag>
<define-tag fixed>yes</define-tag>
<define-tag fixed-section>no</define-tag>

#use wml::debian::security



</dl>
