<define-tag pagetitle>DSA-5196-1 libpgjava</define-tag>
<define-tag report_date>2022-7-31</define-tag>
<define-tag secrefs>CVE-2020-13692 CVE-2022-21724 CVE-2022-26520 Bug#962828</define-tag>
<define-tag packages>libpgjava</define-tag>
<define-tag isvulnerable>yes</define-tag>
<define-tag fixed>yes</define-tag>
<define-tag fixed-section>no</define-tag>

#use wml::debian::security



</dl>
