<define-tag pagetitle>DLA-2014-1 vino</define-tag>
<define-tag report_date>2019-11-29</define-tag>
<define-tag secrefs>CVE-2014-6053 CVE-2018-7225 CVE-2019-15681 Bug#945784</define-tag>
<define-tag packages>vino</define-tag>
<define-tag isvulnerable>yes</define-tag>
<define-tag fixed>yes</define-tag>
<define-tag fixed-section>no</define-tag>

#use wml::debian::security

