<define-tag pagetitle>DLA-1691-1 exiv2</define-tag>
<define-tag report_date>2019-2-26</define-tag>
<define-tag secrefs>CVE-2018-17581 CVE-2018-19107 CVE-2018-19108 CVE-2018-19535 CVE-2018-20097</define-tag>
<define-tag packages>exiv2</define-tag>
<define-tag isvulnerable>yes</define-tag>
<define-tag fixed>yes</define-tag>
<define-tag fixed-section>no</define-tag>

#use wml::debian::security

