<define-tag pagetitle>DLA-1762-1 systemd</define-tag>
<define-tag report_date>2019-04-24</define-tag>
<define-tag secrefs>CVE-2017-18078 CVE-2019-3842</define-tag>
<define-tag packages>systemd</define-tag>
<define-tag isvulnerable>yes</define-tag>
<define-tag fixed>yes</define-tag>
<define-tag fixed-section>no</define-tag>

#use wml::debian::security

