<define-tag pagetitle>DLA-579-1 openjdk-7</define-tag>
<define-tag report_date>2016-8-5</define-tag>
<define-tag secrefs>CVE-2016-3458 CVE-2016-3500 CVE-2016-3508 CVE-2016-3550 CVE-2016-3606</define-tag>
<define-tag packages>openjdk-7</define-tag>
<define-tag isvulnerable>yes</define-tag>
<define-tag fixed>yes</define-tag>
<define-tag fixed-section>no</define-tag>

#use wml::debian::security

